\relax 
\@writefile{lof}{\contentsline {figure}{\numberline {1}{\ignorespaces Long division shown}}{2}\protected@file@percent }
\@writefile{toc}{\contentsline {section}{Problem 1}{2}\protected@file@percent }
\@writefile{toc}{\contentsline {section}{Problem 2}{2}\protected@file@percent }
\@writefile{toc}{\contentsline {section}{a}{2}\protected@file@percent }
\@writefile{toc}{\contentsline {section}{b}{2}\protected@file@percent }
\@writefile{toc}{\contentsline {section}{c}{3}\protected@file@percent }
\@writefile{lof}{\contentsline {figure}{\numberline {2}{\ignorespaces Table shown}}{4}\protected@file@percent }
\@writefile{lof}{\contentsline {figure}{\numberline {3}{\ignorespaces Table shown}}{4}\protected@file@percent }
\@writefile{toc}{\contentsline {section}{Problem 3}{4}\protected@file@percent }
\@writefile{toc}{\contentsline {section}{a}{4}\protected@file@percent }
\@writefile{toc}{\contentsline {section}{b}{4}\protected@file@percent }
\@writefile{toc}{\contentsline {section}{c}{4}\protected@file@percent }
