\relax 
\@writefile{toc}{\contentsline {section}{Problem 1}{2}\protected@file@percent }
\@writefile{toc}{\contentsline {section}{Problem 2}{3}\protected@file@percent }
\@writefile{toc}{\contentsline {section}{a}{3}\protected@file@percent }
\@writefile{toc}{\contentsline {section}{b}{3}\protected@file@percent }
\@writefile{toc}{\contentsline {section}{Problem 3}{3}\protected@file@percent }
\@writefile{toc}{\contentsline {section}{Problem 4}{3}\protected@file@percent }
\@writefile{toc}{\contentsline {section}{A}{3}\protected@file@percent }
\@writefile{toc}{\contentsline {section}{B}{3}\protected@file@percent }
\@writefile{toc}{\contentsline {section}{Problem 5}{4}\protected@file@percent }
\@writefile{toc}{\contentsline {section}{Problem 6}{4}\protected@file@percent }
