\relax 
\bibstyle{plain}
\bibdata{M335}
\@writefile{toc}{\contentsline {section}{\numberline {I}Problem}{1}\protected@file@percent }
\@writefile{toc}{\contentsline {section}{\numberline {II}Motivation}{1}\protected@file@percent }
\@writefile{toc}{\contentsline {section}{\numberline {III}Objective}{1}\protected@file@percent }
