\relax 
\@writefile{toc}{\contentsline {section}{Problem 1}{2}\protected@file@percent }
\@writefile{toc}{\contentsline {section}{Problem 2}{2}\protected@file@percent }
\@writefile{toc}{\contentsline {section}{a}{2}\protected@file@percent }
\@writefile{toc}{\contentsline {section}{b}{2}\protected@file@percent }
\@writefile{toc}{\contentsline {section}{c}{2}\protected@file@percent }
\@writefile{toc}{\contentsline {section}{d}{2}\protected@file@percent }
\@writefile{toc}{\contentsline {section}{Problem 3}{2}\protected@file@percent }
\@writefile{toc}{\contentsline {section}{Problem 4}{3}\protected@file@percent }
\@writefile{toc}{\contentsline {section}{Problem 5}{3}\protected@file@percent }
\@writefile{toc}{\contentsline {section}{a}{3}\protected@file@percent }
\@writefile{toc}{\contentsline {section}{b}{3}\protected@file@percent }
\@writefile{toc}{\contentsline {section}{c}{3}\protected@file@percent }
\@writefile{toc}{\contentsline {section}{d}{3}\protected@file@percent }
\@writefile{toc}{\contentsline {section}{e}{3}\protected@file@percent }
\@writefile{toc}{\contentsline {section}{f}{3}\protected@file@percent }
\@writefile{toc}{\contentsline {section}{g}{3}\protected@file@percent }
